jencoll/example.vcd
$var event 1 ! smt_clock $end
$var wire 1 n0 clock $end
$var wire 1 n1 done $end
$var wire 32 n2 hash_1 $end
$var wire 32 n3 hash_2 $end
$var wire 1 n4 sample_1 $end
$var wire 1 n5 sample_2 $end
$var wire 8 n6 value_1 $end
$var wire 8 n7 value_2 $end
$enddefinitions $end
#0
1!
b00111100 n6
b0 n4
b0 n1
b00111110 n7
b00100100001110110101111110000101 n3
b0 n5
b0 n0
b11100100001010111111101110000000 n2
#1
1!
b01010101 n6
b1 n4
b0 n1
b01010001 n7
b00100100001110110101111110000101 n3
b1 n5
b0 n0
b11100100001010111111101110000000 n2
#2
1!
b00110100 n6
b1 n4
b0 n1
b00111001 n7
b00100100001110110101111110000101 n3
b1 n5
b0 n0
b11100100001010111111101110000000 n2
#3
1!
b01101011 n6
b1 n4
b0 n1
b01110111 n7
b00100100001110110101111110000101 n3
b1 n5
b0 n0
b11100100001010111111101110000000 n2
#4
1!
b00110011 n6
b1 n4
b0 n1
b00110111 n7
b00100100001110110101111110000101 n3
b1 n5
b0 n0
b11100100001010111111101110000000 n2
#5
1!
b00111100 n6
b0 n4
b0 n1
b00111110 n7
b00100100001110110101111110000101 n3
b0 n5
b0 n0
b11100100001010111111101110000000 n2
#6
1!
b00111100 n6
b0 n4
b0 n1
b00111110 n7
b00100100001110110101111110000101 n3
b0 n5
b0 n0
b11100100001010111111101110000000 n2
#7
1!
b00111100 n6
b0 n4
b1 n1
b00111110 n7
b01111011011111010010010110111001 n3
b0 n5
b0 n0
b01111011011111010010010110111001 n2
#8
1!
b00111110 n6
b0 n4
b1 n1
b00111100 n7
b01111011011111010010010110111001 n3
b1 n5
b0 n0
b01111011011111010010010110111001 n2
